[gd_scene load_steps=4 format=2]

[ext_resource path="res://Assets/Fonts/RetroFont.ttf" type="DynamicFontData" id=1]

[sub_resource type="GDScript" id=2]

script/source = "extends Node

var timer

func _ready():
	timer = get_node(\"Timer\")
	timer.connect(\"timeout\", self, \"_on_Timer_timeout\")
	timer.set_wait_time(4.0)
	timer.start()

func _on_Timer_timeout():
	get_tree().change_scene(\"res://Assets/Scenes/Menu.tscn\")"

[sub_resource type="DynamicFont" id=1]

size = 100
use_mipmaps = false
use_filter = false
font_data = ExtResource( 1 )
_sections_unfolded = [ "Font", "Settings" ]

[node name="Node" type="Node"]

script = SubResource( 2 )

[node name="RichTextLabel" type="RichTextLabel" parent="." index="0"]

anchor_left = 0.0
anchor_top = 0.0
anchor_right = 0.0
anchor_bottom = 0.0
margin_top = 233.0
margin_right = 1024.0
margin_bottom = 351.0
rect_pivot_offset = Vector2( 0, 0 )
rect_clip_content = true
mouse_filter = 0
mouse_default_cursor_shape = 0
size_flags_horizontal = 1
size_flags_vertical = 1
custom_fonts/normal_font = SubResource( 1 )
bbcode_enabled = true
bbcode_text = "[center]Game Over[/center]"
visible_characters = -1
percent_visible = 1.0
meta_underlined = true
tab_size = 4
text = "Game Over"
scroll_active = true
scroll_following = false
selection_enabled = false
override_selected_font_color = false
_sections_unfolded = [ "BBCode", "custom_fonts" ]

[node name="Timer" type="Timer" parent="." index="1"]

process_mode = 1
wait_time = 1.0
one_shot = false
autostart = false


