[gd_scene load_steps=9 format=2]

[ext_resource path="res://Assets/Scripts/OpeningCutscene.gd" type="Script" id=1]
[ext_resource path="res://Assets/Sound Effects/synthetic_explosion_1.wav" type="AudioStream" id=2]
[ext_resource path="res://Assets/Textures/Cutscenes/Scene 1/scene1_0.png" type="Texture" id=3]
[ext_resource path="res://Assets/Textures/Cutscenes/Scene 1/scene1_1.png" type="Texture" id=4]
[ext_resource path="res://Assets/Textures/Cutscenes/Scene 1/scene1_2.png" type="Texture" id=5]
[ext_resource path="res://Assets/Textures/Cutscenes/Scene 1/scene1_3.png" type="Texture" id=6]
[ext_resource path="res://Assets/Textures/Cutscenes/Scene 1/scene1_4.png" type="Texture" id=7]
[ext_resource path="res://Assets/Textures/Cutscenes/Scene 1/scene1_5.png" type="Texture" id=8]

[node name="World" type="Node2D"]

script = ExtResource( 1 )

[node name="AudioStreamPlayer" type="AudioStreamPlayer" parent="." index="0"]

stream = ExtResource( 2 )
volume_db = 0.0
autoplay = false
mix_target = 0
bus = "Master"

[node name="scene1_0" type="Sprite" parent="." index="1"]

visible = false
texture = ExtResource( 3 )
centered = false

[node name="scene1_1" type="Sprite" parent="." index="2"]

visible = false
texture = ExtResource( 4 )
centered = false

[node name="scene1_2" type="Sprite" parent="." index="3"]

visible = false
texture = ExtResource( 5 )
centered = false

[node name="scene1_3" type="Sprite" parent="." index="4"]

visible = false
texture = ExtResource( 6 )
centered = false

[node name="scene1_4" type="Sprite" parent="." index="5"]

visible = false
texture = ExtResource( 7 )
centered = false

[node name="scene1_5" type="Sprite" parent="." index="6"]

visible = false
texture = ExtResource( 8 )
centered = false

[node name="Timer" type="Timer" parent="." index="7"]

process_mode = 1
wait_time = 1.0
one_shot = false
autostart = false


